[
  {
    "term": "SERVERSTART",
    "definition": "Server byl spu\u0161t\u011bn",
    "context": "",
    "term_plural": "",
    "reference": "",
    "comment": ""
  },
  {
    "term": "SERVERSTOP",
    "definition": "Server byl zastaven",
    "context": "",
    "term_plural": "",
    "reference": "",
    "comment": ""
  },
  {
    "term": "CLIENTSTART",
    "definition": "Klient byl spu\u0161t\u011bn",
    "context": "",
    "term_plural": "",
    "reference": "",
    "comment": ""
  },
  {
    "term": "CLIENTSTOP",
    "definition": "Klient byl zastaven",
    "context": "",
    "term_plural": "",
    "reference": "",
    "comment": ""
  },
  {
    "term": "ERRORMP3",
    "definition": "Chyba p\u0159i na\u010d\u00edt\u00e1n\u00ed hudby pro \"%s\"",
    "context": "",
    "term_plural": "",
    "reference": "",
    "comment": ""
  },
  {
    "term": "NOTFOUNDMP3",
    "definition": "Hudba pro \"%s\" nebyla nalezena.",
    "context": "",
    "term_plural": "",
    "reference": "",
    "comment": ""
  },
  {
    "term": "FOUNDMP3",
    "definition": "Hudba pro \"%s\" byla na\u010dtena",
    "context": "",
    "term_plural": "",
    "reference": "",
    "comment": ""
  },
  {
    "term": "NOTFOUNDLYRICS",
    "definition": "Text pro \"%s\" nebyl nalezen",
    "context": "",
    "term_plural": "",
    "reference": "",
    "comment": ""
  },
  {
    "term": "FOUNDLYRICS",
    "definition": "Text pro \"%s\" byl na\u010dten",
    "context": "",
    "term_plural": "",
    "reference": "",
    "comment": ""
  },
  {
    "term": "TRANSLATIONMISSING",
    "definition": "Chyba pro p\u0159eklad fr\u00e1ze \"%s\"",
    "context": "",
    "term_plural": "",
    "reference": "",
    "comment": ""
  },
  {
    "term": "BYESERVER",
    "definition": "Bye server said client",
    "context": "",
    "term_plural": "",
    "reference": "",
    "comment": ""
  },
  {
    "term": "PAUSEABEL",
    "definition": "Mezern\u00edk",
    "context": "",
    "term_plural": "",
    "reference": "",
    "comment": ""
  },
  {
    "term": "PAUSEDESCRIPTION",
    "definition": "Pozastaven\u00ed p\u0159ehr\u00e1v\u00e1n\u00ed p\u00edsn\u011b",
    "context": "",
    "term_plural": "",
    "reference": "",
    "comment": ""
  },
  {
    "term": "IDENTIFIERSLABEL",
    "definition": "A a\u017e Z",
    "context": "",
    "term_plural": "",
    "reference": "",
    "comment": ""
  },
  {
    "term": "IDENTIFIERSDESCRIPTION",
    "definition": "Zad\u00e1v\u00e1n\u00ed identifik\u00e1tor\u016f p\u00edsn\u00ed",
    "context": "",
    "term_plural": "",
    "reference": "",
    "comment": ""
  },
  {
    "term": "SCROLLLABEL",
    "definition": "\u0161ipka nahoru a dol\u016f",
    "context": "",
    "term_plural": "",
    "reference": "",
    "comment": ""
  },
  {
    "term": "SCROLLDESCRIPTION",
    "definition": "Posouv\u00e1n\u00ed textu",
    "context": "",
    "term_plural": "",
    "reference": "",
    "comment": ""
  },
  {
    "term": "RESTARTLABEL",
    "definition": "Restart",
    "context": "",
    "term_plural": "",
    "reference": "",
    "comment": ""
  },
  {
    "term": "OKLABEL",
    "definition": "Just one user online",
    "context": "",
    "term_plural": "",
    "reference": "",
    "comment": ""
  },
  {
    "term": "OKDESCRIPTION",
    "definition": "Password",
    "context": "",
    "term_plural": "",
    "reference": "",
    "comment": ""
  },
  {
    "term": "CLOSELABEL",
    "definition": " ",
    "context": "",
    "term_plural": "",
    "reference": "",
    "comment": ""
  },
  {
    "term": "CLOSEDESCRIPTION",
    "definition": " ",
    "context": "",
    "term_plural": "",
    "reference": "",
    "comment": "No string"
  },
  {
    "term": "CLOSEBUTTON",
    "definition": "\u2716",
    "context": "",
    "term_plural": "",
    "reference": "",
    "comment": ""
  },
  {
    "term": "MUSICON",
    "definition": "VYPNOUT HUDBU",
    "context": "",
    "term_plural": "",
    "reference": "",
    "comment": ""
  },
  {
    "term": "MUSICOFF",
    "definition": "ZAPNOUT HUDBU",
    "context": "",
    "term_plural": "",
    "reference": "",
    "comment": ""
  },
  {
    "term": "LYRICS",
    "definition": "TEXT",
    "context": "",
    "term_plural": "",
    "reference": "",
    "comment": ""
  },
  {
    "term": "BYECLIENT",
    "definition": "Bye client said server",
    "context": "",
    "term_plural": "",
    "reference": "",
    "comment": ""
  },
  {
    "term": "NOINPUTSERVER",
    "definition": "Nen\u00ed vstupn\u00ed tok dat pro server",
    "context": "",
    "term_plural": "",
    "reference": "",
    "comment": ""
  },
  {
    "term": "UNABLEREADINPUTSTREAM",
    "definition": "Vstupn\u00ed proud dat pro server nen\u00ed platn\u00fd",
    "context": "",
    "term_plural": "",
    "reference": "",
    "comment": ""
  },
  {
    "term": "NOSERVER",
    "definition": "Klient se nem\u016f\u017ee p\u0159ipojit. Server neb\u011b\u017e\u00ed.",
    "context": "",
    "term_plural": "",
    "reference": "",
    "comment": ""
  },
  {
    "term": "ERRORFILEPRINTER",
    "definition": "Chyba v z\u00e1pisu do logu: %s",
    "context": "",
    "term_plural": "",
    "reference": "",
    "comment": ""
  },
  {
    "term": "ERRORFILETOKEN",
    "definition": "Chyba v souboru s tokenem pro p\u0159ekl\u00e1dac\u00ed server",
    "context": "",
    "term_plural": "",
    "reference": "",
    "comment": ""
  },
  {
    "term": "POEAPIERROR",
    "definition": "Chyba v p\u0159\u00edstupu do POEditoru",
    "context": "",
    "term_plural": "",
    "reference": "",
    "comment": ""
  }
]